<?xml version="1.0" encoding="UTF-8" standalone="no"?>
<svg
   xmlns:dc="http://purl.org/dc/elements/1.1/"
   xmlns:cc="http://creativecommons.org/ns#"
   xmlns:rdf="http://www.w3.org/1999/02/22-rdf-syntax-ns#"
   xmlns:svg="http://www.w3.org/2000/svg"
   xmlns="http://www.w3.org/2000/svg"
   id="svg2"
   version="1.1"
   width="50"
   height="49.791473"
   viewBox="0 0 50 49.791473">
  <metadata
     id="metadata8">
    <rdf:RDF>
      <cc:Work
         rdf:about="">
        <dc:format>image/svg+xml</dc:format>
        <dc:type
           rdf:resource="http://purl.org/dc/dcmitype/StillImage" />
        <dc:title></dc:title>
      </cc:Work>
    </rdf:RDF>
  </metadata>
  <defs
     id="defs6" />
  <path
     style="fill:#000000"
     d=""
     id="path4166" />
  <path
     style="fill:#000000"
     d=""
     id="path4164" />
  <path
     style="fill:#000000"
     d=""
     id="path4162" />
  <g
     id="g4156"
     transform="translate(-135.26309,18.857459)" />
  <g
     id="g4150"
     transform="translate(-128.59695,30.43549)" />
  <g
     id="g4142"
     transform="translate(-195.25834,18.857459)" />
  <path
     style="fill:#000000"
     d=""
     id="path4140" />
  <g
     id="g4302"
     style="fill:#4c4c4c;fill-opacity:1"
     transform="matrix(0.46330562,0,0,0.46330562,-31.372247,74.774456)">
    <g
       id="g4338">
      <g
         id="g4160"
         transform="matrix(0.4543902,0,0,0.4543902,262.1817,-40.187219)"
         style="fill:#d2d2d2;fill-opacity:1;stroke:none">
        <path
           style="fill:#d2d2d2;fill-opacity:1;stroke:none"
           d="m -356.78886,-44.395409 c -7.51132,-7.79049 -24.16374,-26.11762 -37.00538,-40.72697 -19.34701,-22.010191 -23.34845,-28.103191 -23.34845,-35.552721 0,-6.49883 1.97005,-12.32627 7.10886,-16.36845 11.41724,-8.98081 16.98769,-5.30406 35.199,13.73154 9.97413,10.42558 19.02062,17.53702 22.30893,17.53702 5.39691,0 5.53129,-1.34672 5.53129,-55.4317 0,-55.25607 -0.87207,-57.68561 5.7292,-64.287 7.94327,-7.94326 18.36093,-6.24487 27.02245,0.76648 5.69045,4.60633 3.7902,9.04366 4.63104,30.90914 0.87555,22.76792 0.0875,27.83907 0.0875,27.83907 6.25221,-15.18395 31.94502,-19.12681 35.51772,8.11497 7.11366,-13.88531 34.25955,-17.27721 36.04589,9.51799 7.95131,-22.20998 34.38847,-10.88697 35.28164,4.74356 0,0 1.37673,0.95478 1.37673,49.968511 0,49.01372 -0.36896,52.98002 -5.39601,58.00707 -5.09973,5.09973 -8.99334,5.396 -70.91475,5.396 l -65.51874,0 z m 29.35227,-222.348111 c 43.28707,0.423 57.71426,33.38104 51.27172,72.92545 l -16.86967,0 c 0.3562,-16.49637 -2.35878,-39.95372 -14.63363,-47.63163 -14.91579,-8.81097 -38.54106,-9.67099 -50.69449,11.37583 -5.39577,21.50145 -2.36925,39.94015 -3.47096,62.71875 -47.22449,-61.49977 0.23137,-97.98359 34.39703,-99.3884 z"
           id="path4163" />
      </g>
    </g>
  </g>
</svg>
