{
    "com.ohh2ahh.plugins.appavailability": {
        "source": {
            "type": "git",
            "url": "https://github.com/ohh2ahh/AppAvailability.git",
            "subdir": "."
        }
    },
    "org.apache.cordova.dialogs": {
        "source": {
            "type": "registry",
            "id": "org.apache.cordova.dialogs"
        }
    },
    "org.apache.cordova.vibration": {
        "source": {
            "type": "registry",
            "id": "org.apache.cordova.vibration"
        }
    },
    "cordova-plugin-x-socialsharing": {
        "source": {
            "type": "registry",
            "id": "cordova-plugin-x-socialsharing"
        },
        "is_top_level": true,
        "variables": {}
    },
    "cordova-plugin-whitelist": {
        "source": {
            "type": "registry",
            "id": "cordova-plugin-whitelist"
        },
        "is_top_level": true,
        "variables": {}
    },
    "cordova-plugin-splashscreen": {
        "source": {
            "type": "registry",
            "id": "cordova-plugin-splashscreen"
        },
        "is_top_level": true,
        "variables": {}
    },
    "cordova-plugin-spinner-dialog": {
        "source": {
            "type": "registry",
            "id": "cordova-plugin-spinner-dialog"
        },
        "is_top_level": true,
        "variables": {}
    },
    "ionic-plugin-keyboard": {
        "source": {
            "type": "registry",
            "id": "ionic-plugin-keyboard"
        },
        "is_top_level": true,
        "variables": {}
    }
}