<?xml version="1.0" encoding="UTF-8" standalone="no"?>
<svg
   xmlns:dc="http://purl.org/dc/elements/1.1/"
   xmlns:cc="http://creativecommons.org/ns#"
   xmlns:rdf="http://www.w3.org/1999/02/22-rdf-syntax-ns#"
   xmlns:svg="http://www.w3.org/2000/svg"
   xmlns="http://www.w3.org/2000/svg"
   id="svg2"
   version="1.1"
   width="60"
   height="30.693068"
   viewBox="0 0 60 30.693068">
  <metadata
     id="metadata8">
    <rdf:RDF>
      <cc:Work
         rdf:about="">
        <dc:format>image/svg+xml</dc:format>
        <dc:type
           rdf:resource="http://purl.org/dc/dcmitype/StillImage" />
        <dc:title></dc:title>
      </cc:Work>
    </rdf:RDF>
  </metadata>
  <defs
     id="defs6" />
  <path
     style="fill:#000000"
     d=""
     id="path4166" />
  <path
     style="fill:#000000"
     d=""
     id="path4164" />
  <path
     style="fill:#000000"
     d=""
     id="path4162" />
  <g
     id="g4156"
     transform="translate(-135.26309,5.4716254)" />
  <g
     id="g4150"
     transform="translate(-128.59695,17.049656)" />
  <g
     id="g4142"
     transform="translate(-195.25834,5.4716254)" />
  <path
     style="fill:#000000"
     d=""
     id="path4140" />
  <g
     id="g4302"
     style="fill:#4c4c4c;fill-opacity:1"
     transform="matrix(0.3706445,0,0,0.3706445,-25.097798,55.249511)">
    <g
       id="g4338">
      <path
         style="fill:#ececec;fill-opacity:1;fill-rule:evenodd;stroke:none;stroke-width:2.15840244px;stroke-linecap:butt;stroke-linejoin:miter;stroke-opacity:1"
         d="m 163.34611,-149.06335 12.28795,13.89071 -68.38503,68.919283 -39.535094,-41.137873 14.42496,-13.8907 25.110134,26.178633 z"
         id="path4157" />
    </g>
  </g>
</svg>
